BPDatas/KI_20230222_1810.CSV

TIME,CH1,SBP,DBP,Model,TBS1102C
-3.20000 ,1.36000 ,126,84,Firmware Version,v2015-08-04-prequal4ch70_v1.3
-3.19700 ,1.28000 ,,,,
-3.19400 ,1.28000 ,,,Point Format,Y
-3.19000 ,1.24000 ,,,Horizontal Units,S
-3.18700 ,1.12000 ,,,Horizontal Scale,0.4
-3.18400 ,1.08000 ,,,Sample Interval,0.0032
-3.18100 ,0.96000 ,,,Filter Frequency,2.00E+08
-3.17800 ,0.92000 ,,,Record Length,2000
-3.17400 ,0.84000 ,,,Gating,0.0% to 100.0%
-3.17100 ,0.72000 ,,,Probe Attenuation,10
-3.16800 ,0.68000 ,,,Vertical Units,V
-3.16500 ,0.60000 ,,,Vertical Offset,0
-3.16200 ,0.56000 ,,,Vertical Scale,1
-3.15800 ,0.48000 ,,,Label,
-3.15500 ,0.44000 ,,,,
-3.15200 ,0.40000 ,,,,
-3.14900 ,0.36000 ,,,,
-3.14600 ,0.32000 ,,,,
-3.14200 ,0.24000 ,,,,
-3.13900 ,0.20000 ,,,,
-3.13600 ,0.20000 ,,,,
-3.13300 ,0.16000 ,,,,
-3.13000 ,0.08000 ,,,,
-3.12600 ,0.08000 ,,,,
-3.12300 ,0.08000 ,,,,
-3.12000 ,0.04000 ,,,,
-3.11700 ,0.04000 ,,,,
-3.11400 ,-0.04000 ,,,,
-3.11000 ,-0.08000 ,,,,
-3.10700 ,-0.08000 ,,,,
-3.10400 ,-0.08000 ,,,,
-3.10100 ,-0.12000 ,,,,
-3.09800 ,-0.16000 ,,,,
-3.09400 ,-0.16000 ,,,,
-3.09100 ,-0.24000 ,,,,
-3.08800 ,-0.24000 ,,,,
-3.08500 ,-0.28000 ,,,,
-3.08200 ,-0.28000 ,,,,
-3.07800 ,-0.36000 ,,,,
-3.07500 ,-0.32000 ,,,,
-3.07200 ,-0.32000 ,,,,
-3.06900 ,-0.36000 ,,,,
-3.06600 ,-0.32000 ,,,,
-3.06200 ,-0.32000 ,,,,
-3.05900 ,-0.36000 ,,,,
-3.05600 ,-0.36000 ,,,,
-3.05300 ,-0.36000 ,,,,
-3.05000 ,-0.40000 ,,,,
-3.04600 ,-0.40000 ,,,,
-3.04300 ,-0.40000 ,,,,
-3.04000 ,-0.36000 ,,,,
-3.03700 ,-0.36000 ,,,,
-3.03400 ,-0.40000 ,,,,
-3.03000 ,-0.36000 ,,,,
-3.02700 ,-0.36000 ,,,,
-3.02400 ,-0.36000 ,,,,
-3.02100 ,-0.36000 ,,,,
-3.01800 ,-0.36000 ,,,,
-3.01400 ,-0.32000 ,,,,
-3.01100 ,-0.32000 ,,,,
-3.00800 ,-0.32000 ,,,,
-3.00500 ,-0.28000 ,,,,
-3.00200 ,-0.28000 ,,,,
-2.99800 ,-0.32000 ,,,,
-2.99500 ,-0.28000 ,,,,
-2.99200 ,-0.28000 ,,,,
-2.98900 ,-0.28000 ,,,,
-2.98600 ,-0.28000 ,,,,
-2.98200 ,-0.28000 ,,,,
-2.97900 ,-0.24000 ,,,,
-2.97600 ,-0.24000 ,,,,
-2.97300 ,-0.24000 ,,,,
-2.97000 ,-0.28000 ,,,,
-2.96600 ,-0.36000 ,,,,
-2.96300 ,-0.32000 ,,,,
-2.96000 ,-0.32000 ,,,,
-2.95700 ,-0.44000 ,,,,
-2.95400 ,-0.44000 ,,,,
-2.95000 ,-0.44000 ,,,,
-2.94700 ,-0.48000 ,,,,
-2.94400 ,-0.52000 ,,,,
-2.94100 ,-0.56000 ,,,,
-2.93800 ,-0.52000 ,,,,
-2.93400 ,-0.60000 ,,,,
-2.93100 ,-0.60000 ,,,,
-2.92800 ,-0.68000 ,,,,
-2.92500 ,-0.68000 ,,,,
-2.92200 ,-0.68000 ,,,,
-2.91800 ,-0.68000 ,,,,
-2.91500 ,-0.68000 ,,,,
-2.91200 ,-0.72000 ,,,,
-2.90900 ,-0.72000 ,,,,
-2.90600 ,-0.76000 ,,,,
-2.90200 ,-0.80000 ,,,,
-2.89900 ,-0.80000 ,,,,
-2.89600 ,-0.80000 ,,,,
-2.89300 ,-0.80000 ,,,,
-2.89000 ,-0.84000 ,,,,
-2.88600 ,-0.80000 ,,,,
-2.88300 ,-0.80000 ,,,,
-2.88000 ,-0.84000 ,,,,
-2.87700 ,-0.84000 ,,,,
-2.87400 ,-0.84000 ,,,,
-2.87000 ,-0.88000 ,,,,
-2.86700 ,-0.84000 ,,,,
-2.86400 ,-0.84000 ,,,,
-2.86100 ,-0.84000 ,,,,
-2.85800 ,-0.88000 ,,,,
-2.85400 ,-0.84000 ,,,,
-2.85100 ,-0.84000 ,,,,
-2.84800 ,-0.84000 ,,,,
-2.84500 ,-0.88000 ,,,,
-2.84200 ,-0.88000 ,,,,
-2.83800 ,-0.88000 ,,,,
-2.83500 ,-0.88000 ,,,,
-2.83200 ,-0.92000 ,,,,
-2.82900 ,-0.88000 ,,,,
-2.82600 ,-0.96000 ,,,,
-2.82200 ,-0.92000 ,,,,
-2.81900 ,-0.96000 ,,,,
-2.81600 ,-0.92000 ,,,,
-2.81300 ,-0.92000 ,,,,
-2.81000 ,-0.92000 ,,,,
-2.80600 ,-0.96000 ,,,,
-2.80300 ,-1.00000 ,,,,
-2.80000 ,-1.00000 ,,,,
-2.79700 ,-1.04000 ,,,,
-2.79400 ,-1.00000 ,,,,
-2.79000 ,-1.04000 ,,,,
-2.78700 ,-1.12000 ,,,,
-2.78400 ,-1.12000 ,,,,
-2.78100 ,-1.12000 ,,,,
-2.77800 ,-1.20000 ,,,,
-2.77400 ,-1.20000 ,,,,
-2.77100 ,-1.24000 ,,,,
-2.76800 ,-1.24000 ,,,,
-2.76500 ,-1.36000 ,,,,
-2.76200 ,-1.36000 ,,,,
-2.75800 ,-1.36000 ,,,,
-2.75500 ,-1.40000 ,,,,
-2.75200 ,-1.44000 ,,,,
-2.74900 ,-1.44000 ,,,,
-2.74600 ,-1.48000 ,,,,
-2.74200 ,-1.52000 ,,,,
-2.73900 ,-1.52000 ,,,,
-2.73600 ,-1.52000 ,,,,
-2.73300 ,-1.56000 ,,,,
-2.73000 ,-1.56000 ,,,,
-2.72600 ,-1.48000 ,,,,
-2.72300 ,-1.52000 ,,,,
-2.72000 ,-1.48000 ,,,,
-2.71700 ,-1.48000 ,,,,
-2.71400 ,-1.44000 ,,,,
-2.71000 ,-1.36000 ,,,,
-2.70700 ,-1.32000 ,,,,
-2.70400 ,-1.28000 ,,,,
-2.70100 ,-1.20000 ,,,,
-2.69800 ,-1.12000 ,,,,
-2.69400 ,-1.00000 ,,,,
-2.69100 ,-0.84000 ,,,,
-2.68800 ,-0.68000 ,,,,
-2.68500 ,-0.52000 ,,,,
-2.68200 ,-0.28000 ,,,,
-2.67800 ,-0.16000 ,,,,
-2.67500 ,0.12000 ,,,,
-2.67200 ,0.40000 ,,,,
-2.66900 ,0.68000 ,,,,
-2.66600 ,1.04000 ,,,,
-2.66200 ,1.36000 ,,,,
-2.65900 ,1.64000 ,,,,
-2.65600 ,2.00000 ,,,,
-2.65300 ,2.36000 ,,,,
-2.65000 ,2.68000 ,,,,
-2.64600 ,2.96000 ,,,,
-2.64300 ,3.20000 ,,,,
-2.64000 ,3.48000 ,,,,
-2.63700 ,3.64000 ,,,,
-2.63400 ,3.80000 ,,,,
-2.63000 ,3.96000 ,,,,
-2.62700 ,4.08000 ,,,,
-2.62400 ,4.20000 ,,,,
-2.62100 ,4.28000 ,,,,
-2.61800 ,4.32000 ,,,,
-2.61400 ,4.40000 ,,,,
-2.61100 ,4.44000 ,,,,
-2.60800 ,4.40000 ,,,,
-2.60500 ,4.40000 ,,,,
-2.60200 ,4.40000 ,,,,
-2.59800 ,4.48000 ,,,,
-2.59500 ,4.44000 ,,,,
-2.59200 ,4.40000 ,,,,
-2.58900 ,4.40000 ,,,,
-2.58600 ,4.40000 ,,,,
-2.58200 ,4.36000 ,,,,
-2.57900 ,4.36000 ,,,,
-2.57600 ,4.32000 ,,,,
-2.57300 ,4.36000 ,,,,
-2.57000 ,4.32000 ,,,,
-2.56600 ,4.28000 ,,,,
-2.56300 ,4.28000 ,,,,
-2.56000 ,4.24000 ,,,,
-2.55700 ,4.16000 ,,,,
-2.55400 ,4.12000 ,,,,
-2.55000 ,4.08000 ,,,,
-2.54700 ,3.96000 ,,,,
-2.54400 ,3.88000 ,,,,
-2.54100 ,3.76000 ,,,,
-2.53800 ,3.64000 ,,,,
-2.53400 ,3.52000 ,,,,
-2.53100 ,3.44000 ,,,,
-2.52800 ,3.28000 ,,,,
-2.52500 ,3.20000 ,,,,
-2.52200 ,3.12000 ,,,,
-2.51800 ,3.00000 ,,,,
-2.51500 ,2.88000 ,,,,
-2.51200 ,2.80000 ,,,,
-2.50900 ,2.72000 ,,,,
-2.50600 ,2.68000 ,,,,
-2.50200 ,2.64000 ,,,,
-2.49900 ,2.60000 ,,,,
-2.49600 ,2.56000 ,,,,
-2.49300 ,2.52000 ,,,,
-2.49000 ,2.48000 ,,,,
-2.48600 ,2.44000 ,,,,
-2.48300 ,2.48000 ,,,,
-2.48000 ,2.48000 ,,,,
-2.47700 ,2.48000 ,,,,
-2.47400 ,2.44000 ,,,,
-2.47000 ,2.48000 ,,,,
-2.46700 ,2.40000 ,,,,
-2.46400 ,2.40000 ,,,,
-2.46100 ,2.36000 ,,,,
-2.45800 ,2.40000 ,,,,
-2.45400 ,2.32000 ,,,,
-2.45100 ,2.32000 ,,,,
-2.44800 ,2.20000 ,,,,
-2.44500 ,2.20000 ,,,,
-2.44200 ,2.20000 ,,,,
-2.43800 ,2.12000 ,,,,
-2.43500 ,2.04000 ,,,,
-2.43200 ,2.00000 ,,,,
-2.42900 ,1.92000 ,,,,
-2.42600 ,1.88000 ,,,,
-2.42200 ,1.84000 ,,,,
-2.41900 ,1.72000 ,,,,
-2.41600 ,1.68000 ,,,,
-2.41300 ,1.60000 ,,,,
-2.41000 ,1.52000 ,,,,
-2.40600 ,1.48000 ,,,,
-2.40300 ,1.44000 ,,,,
-2.40000 ,1.40000 ,,,,
-2.39700 ,1.36000 ,,,,
-2.39400 ,1.32000 ,,,,
-2.39000 ,1.32000 ,,,,
-2.38700 ,1.28000 ,,,,
-2.38400 ,1.24000 ,,,,
-2.38100 ,1.20000 ,,,,
-2.37800 ,1.24000 ,,,,
-2.37400 ,1.24000 ,,,,
-2.37100 ,1.28000 ,,,,
-2.36800 ,1.28000 ,,,,
-2.36500 ,1.28000 ,,,,
-2.36200 ,1.32000 ,,,,
-2.35800 ,1.32000 ,,,,
-2.35500 ,1.36000 ,,,,
-2.35200 ,1.40000 ,,,,
-2.34900 ,1.44000 ,,,,
-2.34600 ,1.44000 ,,,,
-2.34200 ,1.48000 ,,,,
-2.33900 ,1.44000 ,,,,
-2.33600 ,1.52000 ,,,,
-2.33300 ,1.48000 ,,,,
-2.33000 ,1.56000 ,,,,
-2.32600 ,1.52000 ,,,,
-2.32300 ,1.52000 ,,,,
-2.32000 ,1.52000 ,,,,
-2.31700 ,1.52000 ,,,,
-2.31400 ,1.56000 ,,,,
-2.31000 ,1.52000 ,,,,
-2.30700 ,1.56000 ,,,,
-2.30400 ,1.48000 ,,,,
-2.30100 ,1.48000 ,,,,
-2.29800 ,1.52000 ,,,,
-2.29400 ,1.48000 ,,,,
-2.29100 ,1.44000 ,,,,
-2.28800 ,1.44000 ,,,,
-2.28500 ,1.44000 ,,,,
-2.28200 ,1.40000 ,,,,
-2.27800 ,1.32000 ,,,,
-2.27500 ,1.28000 ,,,,
-2.27200 ,1.28000 ,,,,
-2.26900 ,1.20000 ,,,,
-2.26600 ,1.12000 ,,,,
-2.26200 ,1.08000 ,,,,
-2.25900 ,0.96000 ,,,,
-2.25600 ,0.92000 ,,,,
-2.25300 ,0.84000 ,,,,
-2.25000 ,0.80000 ,,,,
-2.24600 ,0.72000 ,,,,
-2.24300 ,0.64000 ,,,,
-2.24000 ,0.60000 ,,,,
-2.23700 ,0.52000 ,,,,
-2.23400 ,0.40000 ,,,,
-2.23000 ,0.32000 ,,,,
-2.22700 ,0.28000 ,,,,
-2.22400 ,0.24000 ,,,,
-2.22100 ,0.12000 ,,,,
-2.21800 ,0.08000 ,,,,
-2.21400 ,0.00000 ,,,,
-2.21100 ,-0.04000 ,,,,
-2.20800 ,-0.08000 ,,,,
-2.20500 ,-0.12000 ,,,,
-2.20200 ,-0.12000 ,,,,
-2.19800 ,-0.16000 ,,,,
-2.19500 ,-0.20000 ,,,,
-2.19200 ,-0.20000 ,,,,
-2.18900 ,-0.24000 ,,,,
-2.18600 ,-0.24000 ,,,,
-2.18200 ,-0.24000 ,,,,
-2.17900 ,-0.28000 ,,,,
-2.17600 ,-0.28000 ,,,,
-2.17300 ,-0.32000 ,,,,
-2.17000 ,-0.40000 ,,,,
-2.16600 ,-0.40000 ,,,,
-2.16300 ,-0.40000 ,,,,
-2.16000 ,-0.44000 ,,,,
-2.15700 ,-0.52000 ,,,,
-2.15400 ,-0.52000 ,,,,
-2.15000 ,-0.56000 ,,,,
-2.14700 ,-0.60000 ,,,,
-2.14400 ,-0.60000 ,,,,
-2.14100 ,-0.60000 ,,,,
-2.13800 ,-0.72000 ,,,,
-2.13400 ,-0.72000 ,,,,
-2.13100 ,-0.76000 ,,,,
-2.12800 ,-0.72000 ,,,,
-2.12500 ,-0.72000 ,,,,
-2.12200 ,-0.76000 ,,,,
-2.11800 ,-0.76000 ,,,,
-2.11500 ,-0.72000 ,,,,
-2.11200 ,-0.76000 ,,,,
-2.10900 ,-0.76000 ,,,,
-2.10600 ,-0.76000 ,,,,
-2.10200 ,-0.76000 ,,,,
-2.09900 ,-0.72000 ,,,,
-2.09600 ,-0.72000 ,,,,
-2.09300 ,-0.72000 ,,,,
-2.09000 ,-0.72000 ,,,,
-2.08600 ,-0.68000 ,,,,
-2.08300 ,-0.68000 ,,,,
-2.08000 ,-0.68000 ,,,,
-2.07700 ,-0.72000 ,,,,
-2.07400 ,-0.72000 ,,,,
-2.07000 ,-0.72000 ,,,,
-2.06700 ,-0.80000 ,,,,
-2.06400 ,-0.72000 ,,,,
-2.06100 ,-0.76000 ,,,,
-2.05800 ,-0.80000 ,,,,
-2.05400 ,-0.80000 ,,,,
-2.05100 ,-0.84000 ,,,,
-2.04800 ,-0.88000 ,,,,
-2.04500 ,-0.84000 ,,,,
-2.04200 ,-0.84000 ,,,,
-2.03800 ,-0.88000 ,,,,
-2.03500 ,-0.88000 ,,,,
-2.03200 ,-0.88000 ,,,,
-2.02900 ,-0.88000 ,,,,
-2.02600 ,-0.88000 ,,,,
-2.02200 ,-0.88000 ,,,,
-2.01900 ,-0.92000 ,,,,
-2.01600 ,-0.92000 ,,,,
-2.01300 ,-0.88000 ,,,,
-2.01000 ,-0.92000 ,,,,
-2.00600 ,-0.96000 ,,,,
-2.00300 ,-1.00000 ,,,,
-2.00000 ,-0.96000 ,,,,
-1.99700 ,-0.96000 ,,,,
-1.99400 ,-0.96000 ,,,,
-1.99000 ,-1.04000 ,,,,
-1.98700 ,-1.04000 ,,,,
-1.98400 ,-1.00000 ,,,,
-1.98100 ,-1.00000 ,,,,
-1.97800 ,-1.04000 ,,,,
-1.97400 ,-1.00000 ,,,,
-1.97100 ,-1.08000 ,,,,
-1.96800 ,-1.08000 ,,,,
-1.96500 ,-1.08000 ,,,,
-1.96200 ,-1.12000 ,,,,
-1.95800 ,-1.08000 ,,,,
-1.95500 ,-1.12000 ,,,,
-1.95200 ,-1.08000 ,,,,
-1.94900 ,-1.12000 ,,,,
-1.94600 ,-1.12000 ,,,,
-1.94200 ,-1.12000 ,,,,
-1.93900 ,-1.16000 ,,,,
-1.93600 ,-1.08000 ,,,,
-1.93300 ,-1.12000 ,,,,
-1.93000 ,-1.12000 ,,,,
-1.92600 ,-1.12000 ,,,,
-1.92300 ,-1.12000 ,,,,
-1.92000 ,-1.12000 ,,,,
-1.91700 ,-1.16000 ,,,,
-1.91400 ,-1.12000 ,,,,
-1.91000 ,-1.12000 ,,,,
-1.90700 ,-1.12000 ,,,,
-1.90400 ,-1.16000 ,,,,
-1.90100 ,-1.16000 ,,,,
-1.89800 ,-1.16000 ,,,,
-1.89400 ,-1.16000 ,,,,
-1.89100 ,-1.16000 ,,,,
-1.88800 ,-1.12000 ,,,,
-1.88500 ,-1.12000 ,,,,
-1.88200 ,-1.16000 ,,,,
-1.87800 ,-1.16000 ,,,,
-1.87500 ,-1.20000 ,,,,
-1.87200 ,-1.20000 ,,,,
-1.86900 ,-1.24000 ,,,,
-1.86600 ,-1.24000 ,,,,
-1.86200 ,-1.24000 ,,,,
-1.85900 ,-1.28000 ,,,,
-1.85600 ,-1.28000 ,,,,
-1.85300 ,-1.32000 ,,,,
-1.85000 ,-1.32000 ,,,,
-1.84600 ,-1.36000 ,,,,
-1.84300 ,-1.40000 ,,,,
-1.84000 ,-1.40000 ,,,,
-1.83700 ,-1.48000 ,,,,
-1.83400 ,-1.44000 ,,,,
-1.83000 ,-1.48000 ,,,,
-1.82700 ,-1.48000 ,,,,
-1.82400 ,-1.52000 ,,,,
-1.82100 ,-1.52000 ,,,,
-1.81800 ,-1.52000 ,,,,
-1.81400 ,-1.56000 ,,,,
-1.81100 ,-1.56000 ,,,,
-1.80800 ,-1.60000 ,,,,
-1.80500 ,-1.60000 ,,,,
-1.80200 ,-1.64000 ,,,,
-1.79800 ,-1.68000 ,,,,
-1.79500 ,-1.68000 ,,,,
-1.79200 ,-1.68000 ,,,,
-1.78900 ,-1.68000 ,,,,
-1.78600 ,-1.68000 ,,,,
-1.78200 ,-1.72000 ,,,,
-1.77900 ,-1.72000 ,,,,
-1.77600 ,-1.72000 ,,,,
-1.77300 ,-1.68000 ,,,,
-1.77000 ,-1.68000 ,,,,
-1.76600 ,-1.68000 ,,,,
-1.76300 ,-1.68000 ,,,,
-1.76000 ,-1.68000 ,,,,
-1.75700 ,-1.60000 ,,,,
-1.75400 ,-1.56000 ,,,,
-1.75000 ,-1.48000 ,,,,
-1.74700 ,-1.40000 ,,,,
-1.74400 ,-1.28000 ,,,,
-1.74100 ,-1.16000 ,,,,
-1.73800 ,-1.04000 ,,,,
-1.73400 ,-0.88000 ,,,,
-1.73100 ,-0.68000 ,,,,
-1.72800 ,-0.44000 ,,,,
-1.72500 ,-0.24000 ,,,,
-1.72200 ,0.00000 ,,,,
-1.71800 ,0.32000 ,,,,
-1.71500 ,0.64000 ,,,,
-1.71200 ,0.88000 ,,,,
-1.70900 ,1.24000 ,,,,
-1.70600 ,1.60000 ,,,,
-1.70200 ,1.92000 ,,,,
-1.69900 ,2.28000 ,,,,
-1.69600 ,2.60000 ,,,,
-1.69300 ,2.84000 ,,,,
-1.69000 ,3.16000 ,,,,
-1.68600 ,3.36000 ,,,,
-1.68300 ,3.64000 ,,,,
-1.68000 ,3.80000 ,,,,
-1.67700 ,3.92000 ,,,,
-1.67400 ,4.04000 ,,,,
-1.67000 ,4.16000 ,,,,
-1.66700 ,4.28000 ,,,,
-1.66400 ,4.32000 ,,,,
-1.66100 ,4.32000 ,,,,
-1.65800 ,4.40000 ,,,,
-1.65400 ,4.40000 ,,,,
-1.65100 ,4.44000 ,,,,
-1.64800 ,4.44000 ,,,,
-1.64500 ,4.40000 ,,,,
-1.64200 ,4.40000 ,,,,
-1.63800 ,4.40000 ,,,,
-1.63500 ,4.36000 ,,,,
-1.63200 ,4.36000 ,,,,
-1.62900 ,4.36000 ,,,,
-1.62600 ,4.32000 ,,,,
-1.62200 ,4.20000 ,,,,
-1.61900 ,4.16000 ,,,,
-1.61600 ,4.08000 ,,,,
-1.61300 ,4.00000 ,,,,
-1.61000 ,3.88000 ,,,,
-1.60600 ,3.80000 ,,,,
-1.60300 ,3.68000 ,,,,
-1.60000 ,3.60000 ,,,,
-1.59700 ,3.44000 ,,,,
-1.59400 ,3.36000 ,,,,
-1.59000 ,3.24000 ,,,,
-1.58700 ,3.16000 ,,,,
-1.58400 ,2.96000 ,,,,
-1.58100 ,2.88000 ,,,,
-1.57800 ,2.80000 ,,,,
-1.57400 ,2.72000 ,,,,
-1.57100 ,2.72000 ,,,,
-1.56800 ,2.64000 ,,,,
-1.56500 ,2.56000 ,,,,
-1.56200 ,2.56000 ,,,,
-1.55800 ,2.48000 ,,,,
-1.55500 ,2.48000 ,,,,
-1.55200 ,2.40000 ,,,,
-1.54900 ,2.44000 ,,,,
-1.54600 ,2.44000 ,,,,
-1.54200 ,2.44000 ,,,,
-1.53900 ,2.44000 ,,,,
-1.53600 ,2.44000 ,,,,
-1.53300 ,2.44000 ,,,,
-1.53000 ,2.44000 ,,,,
-1.52600 ,2.44000 ,,,,
-1.52300 ,2.44000 ,,,,
-1.52000 ,2.44000 ,,,,
-1.51700 ,2.44000 ,,,,
-1.51400 ,2.40000 ,,,,
-1.51000 ,2.36000 ,,,,
-1.50700 ,2.36000 ,,,,
-1.50400 ,2.28000 ,,,,
-1.50100 ,2.28000 ,,,,
-1.49800 ,2.24000 ,,,,
-1.49400 ,2.16000 ,,,,
-1.49100 ,2.08000 ,,,,
-1.48800 ,2.04000 ,,,,
-1.48500 ,1.96000 ,,,,
-1.48200 ,1.92000 ,,,,
-1.47800 ,1.76000 ,,,,
-1.47500 ,1.68000 ,,,,
-1.47200 ,1.56000 ,,,,
-1.46900 ,1.48000 ,,,,
-1.46600 ,1.40000 ,,,,
-1.46200 ,1.32000 ,,,,
-1.45900 ,1.20000 ,,,,
-1.45600 ,1.12000 ,,,,
-1.45300 ,1.04000 ,,,,
-1.45000 ,0.96000 ,,,,
-1.44600 ,0.88000 ,,,,
-1.44300 ,0.84000 ,,,,
-1.44000 ,0.80000 ,,,,
-1.43700 ,0.76000 ,,,,
-1.43400 ,0.72000 ,,,,
-1.43000 ,0.64000 ,,,,
-1.42700 ,0.68000 ,,,,
-1.42400 ,0.64000 ,,,,
-1.42100 ,0.68000 ,,,,
-1.41800 ,0.72000 ,,,,
-1.41400 ,0.68000 ,,,,
-1.41100 ,0.76000 ,,,,
-1.40800 ,0.80000 ,,,,
-1.40500 ,0.80000 ,,,,
-1.40200 ,0.84000 ,,,,
-1.39800 ,0.92000 ,,,,
-1.39500 ,0.92000 ,,,,
-1.39200 ,0.96000 ,,,,
-1.38900 ,1.04000 ,,,,
-1.38600 ,1.08000 ,,,,
-1.38200 ,1.12000 ,,,,
-1.37900 ,1.16000 ,,,,
-1.37600 ,1.20000 ,,,,
-1.37300 ,1.28000 ,,,,
-1.37000 ,1.32000 ,,,,
-1.36600 ,1.28000 ,,,,
-1.36300 ,1.32000 ,,,,
-1.36000 ,1.36000 ,,,,
-1.35700 ,1.32000 ,,,,
-1.35400 ,1.36000 ,,,,
-1.35000 ,1.32000 ,,,,
-1.34700 ,1.36000 ,,,,
-1.34400 ,1.32000 ,,,,
-1.34100 ,1.28000 ,,,,
-1.33800 ,1.28000 ,,,,
-1.33400 ,1.28000 ,,,,
-1.33100 ,1.20000 ,,,,
-1.32800 ,1.20000 ,,,,
-1.32500 ,1.12000 ,,,,
-1.32200 ,1.12000 ,,,,
-1.31800 ,1.08000 ,,,,
-1.31500 ,1.04000 ,,,,
-1.31200 ,1.00000 ,,,,
-1.30900 ,0.96000 ,,,,
-1.30600 ,0.92000 ,,,,
-1.30200 ,0.84000 ,,,,
-1.29900 ,0.84000 ,,,,
-1.29600 ,0.80000 ,,,,
-1.29300 ,0.76000 ,,,,
-1.29000 ,0.68000 ,,,,
-1.28600 ,0.68000 ,,,,
-1.28300 ,0.60000 ,,,,
-1.28000 ,0.60000 ,,,,
-1.27700 ,0.56000 ,,,,
-1.27400 ,0.52000 ,,,,
-1.27000 ,0.48000 ,,,,
-1.26700 ,0.52000 ,,,,
-1.26400 ,0.44000 ,,,,
-1.26100 ,0.36000 ,,,,
-1.25800 ,0.40000 ,,,,
-1.25400 ,0.32000 ,,,,
-1.25100 ,0.24000 ,,,,
-1.24800 ,0.20000 ,,,,
-1.24500 ,0.20000 ,,,,
-1.24200 ,0.16000 ,,,,
-1.23800 ,0.16000 ,,,,
-1.23500 ,0.04000 ,,,,
-1.23200 ,0.00000 ,,,,
-1.22900 ,0.00000 ,,,,
-1.22600 ,-0.04000 ,,,,
-1.22200 ,-0.12000 ,,,,
-1.21900 ,-0.12000 ,,,,
-1.21600 ,-0.20000 ,,,,
-1.21300 ,-0.16000 ,,,,
-1.21000 ,-0.16000 ,,,,
-1.20600 ,-0.20000 ,,,,
-1.20300 ,-0.24000 ,,,,
-1.20000 ,-0.24000 ,,,,
-1.19700 ,-0.28000 ,,,,
-1.19400 ,-0.24000 ,,,,
-1.19000 ,-0.28000 ,,,,
-1.18700 ,-0.28000 ,,,,
-1.18400 ,-0.32000 ,,,,
-1.18100 ,-0.28000 ,,,,
-1.17800 ,-0.28000 ,,,,
-1.17400 ,-0.28000 ,,,,
-1.17100 ,-0.28000 ,,,,
-1.16800 ,-0.32000 ,,,,
-1.16500 ,-0.32000 ,,,,
-1.16200 ,-0.32000 ,,,,
-1.15800 ,-0.32000 ,,,,
-1.15500 ,-0.28000 ,,,,
-1.15200 ,-0.32000 ,,,,
-1.14900 ,-0.28000 ,,,,
-1.14600 ,-0.28000 ,,,,
-1.14200 ,-0.24000 ,,,,
-1.13900 ,-0.28000 ,,,,
-1.13600 ,-0.20000 ,,,,
-1.13300 ,-0.24000 ,,,,
-1.13000 ,-0.20000 ,,,,
-1.12600 ,-0.20000 ,,,,
-1.12300 ,-0.20000 ,,,,
-1.12000 ,-0.24000 ,,,,
-1.11700 ,-0.20000 ,,,,
-1.11400 ,-0.20000 ,,,,
-1.11000 ,-0.20000 ,,,,
-1.10700 ,-0.20000 ,,,,
-1.10400 ,-0.24000 ,,,,
-1.10100 ,-0.20000 ,,,,
-1.09800 ,-0.20000 ,,,,
-1.09400 ,-0.20000 ,,,,
-1.09100 ,-0.20000 ,,,,
-1.08800 ,-0.20000 ,,,,
-1.08500 ,-0.20000 ,,,,
-1.08200 ,-0.20000 ,,,,
-1.07800 ,-0.24000 ,,,,
-1.07500 ,-0.24000 ,,,,
-1.07200 ,-0.20000 ,,,,
-1.06900 ,-0.28000 ,,,,
-1.06600 ,-0.28000 ,,,,
-1.06200 ,-0.28000 ,,,,
-1.05900 ,-0.32000 ,,,,
-1.05600 ,-0.32000 ,,,,
-1.05300 ,-0.32000 ,,,,
-1.05000 ,-0.32000 ,,,,
-1.04600 ,-0.40000 ,,,,
-1.04300 ,-0.36000 ,,,,
-1.04000 ,-0.36000 ,,,,
-1.03700 ,-0.36000 ,,,,
-1.03400 ,-0.36000 ,,,,
-1.03000 ,-0.40000 ,,,,
-1.02700 ,-0.40000 ,,,,
-1.02400 ,-0.40000 ,,,,
-1.02100 ,-0.44000 ,,,,
-1.01800 ,-0.44000 ,,,,
-1.01400 ,-0.48000 ,,,,
-1.01100 ,-0.44000 ,,,,
-1.00800 ,-0.48000 ,,,,
-1.00500 ,-0.48000 ,,,,
-1.00200 ,-0.56000 ,,,,
-0.99840 ,-0.56000 ,,,,
-0.99520 ,-0.52000 ,,,,
-0.99200 ,-0.56000 ,,,,
-0.98880 ,-0.56000 ,,,,
-0.98560 ,-0.60000 ,,,,
-0.98240 ,-0.60000 ,,,,
-0.97920 ,-0.64000 ,,,,
-0.97600 ,-0.64000 ,,,,
-0.97280 ,-0.72000 ,,,,
-0.96960 ,-0.72000 ,,,,
-0.96640 ,-0.72000 ,,,,
-0.96320 ,-0.76000 ,,,,
-0.96000 ,-0.76000 ,,,,
-0.95680 ,-0.76000 ,,,,
-0.95360 ,-0.80000 ,,,,
-0.95040 ,-0.80000 ,,,,
-0.94720 ,-0.80000 ,,,,
-0.94400 ,-0.84000 ,,,,
-0.94080 ,-0.84000 ,,,,
-0.93760 ,-0.88000 ,,,,
-0.93440 ,-0.88000 ,,,,
-0.93120 ,-0.84000 ,,,,
-0.92800 ,-0.84000 ,,,,
-0.92480 ,-0.84000 ,,,,
-0.92160 ,-0.84000 ,,,,
-0.91840 ,-0.84000 ,,,,
-0.91520 ,-0.84000 ,,,,
-0.91200 ,-0.84000 ,,,,
-0.90880 ,-0.88000 ,,,,
-0.90560 ,-0.84000 ,,,,
-0.90240 ,-0.88000 ,,,,
-0.89920 ,-0.92000 ,,,,
-0.89600 ,-0.88000 ,,,,
-0.89280 ,-0.88000 ,,,,
-0.88960 ,-0.92000 ,,,,
-0.88640 ,-0.92000 ,,,,
-0.88320 ,-0.92000 ,,,,
-0.88000 ,-1.00000 ,,,,
-0.87680 ,-0.96000 ,,,,
-0.87360 ,-0.92000 ,,,,
-0.87040 ,-0.92000 ,,,,
-0.86720 ,-1.04000 ,,,,
-0.86400 ,-1.04000 ,,,,
-0.86080 ,-1.04000 ,,,,
-0.85760 ,-1.08000 ,,,,
-0.85440 ,-1.04000 ,,,,
-0.85120 ,-1.08000 ,,,,
-0.84800 ,-1.12000 ,,,,
-0.84480 ,-1.12000 ,,,,
-0.84160 ,-1.16000 ,,,,
-0.83840 ,-1.16000 ,,,,
-0.83520 ,-1.20000 ,,,,
-0.83200 ,-1.20000 ,,,,
-0.82880 ,-1.24000 ,,,,
-0.82560 ,-1.16000 ,,,,
-0.82240 ,-1.24000 ,,,,
-0.81920 ,-1.20000 ,,,,
-0.81600 ,-1.20000 ,,,,
-0.81280 ,-1.20000 ,,,,
-0.80960 ,-1.20000 ,,,,
-0.80640 ,-1.12000 ,,,,
-0.80320 ,-1.12000 ,,,,
-0.80000 ,-1.08000 ,,,,
-0.79680 ,-1.00000 ,,,,
-0.79360 ,-0.96000 ,,,,
-0.79040 ,-0.88000 ,,,,
-0.78720 ,-0.76000 ,,,,
-0.78400 ,-0.56000 ,,,,
-0.78080 ,-0.44000 ,,,,
-0.77760 ,-0.28000 ,,,,
-0.77440 ,-0.12000 ,,,,
-0.77120 ,0.08000 ,,,,
-0.76800 ,0.40000 ,,,,
-0.76480 ,0.68000 ,,,,
-0.76160 ,0.96000 ,,,,
-0.75840 ,1.24000 ,,,,
-0.75520 ,1.52000 ,,,,
-0.75200 ,1.88000 ,,,,
-0.74880 ,2.20000 ,,,,
-0.74560 ,2.56000 ,,,,
-0.74240 ,2.80000 ,,,,
-0.73920 ,3.08000 ,,,,
-0.73600 ,3.36000 ,,,,
-0.73280 ,3.56000 ,,,,
-0.72960 ,3.76000 ,,,,
-0.72640 ,3.92000 ,,,,
-0.72320 ,4.08000 ,,,,
-0.72000 ,4.12000 ,,,,
-0.71680 ,4.24000 ,,,,
-0.71360 ,4.28000 ,,,,
-0.71040 ,4.36000 ,,,,
-0.70720 ,4.36000 ,,,,
-0.70400 ,4.44000 ,,,,
-0.70080 ,4.44000 ,,,,
-0.69760 ,4.44000 ,,,,
-0.69440 ,4.40000 ,,,,
-0.69120 ,4.44000 ,,,,
-0.68800 ,4.44000 ,,,,
-0.68480 ,4.40000 ,,,,
-0.68160 ,4.32000 ,,,,
-0.67840 ,4.32000 ,,,,
-0.67520 ,4.36000 ,,,,
-0.67200 ,4.32000 ,,,,
-0.66880 ,4.32000 ,,,,
-0.66560 ,4.36000 ,,,,
-0.66240 ,4.32000 ,,,,
-0.65920 ,4.28000 ,,,,
-0.65600 ,4.24000 ,,,,
-0.65280 ,4.24000 ,,,,
-0.64960 ,4.16000 ,,,,
-0.64640 ,4.08000 ,,,,
-0.64320 ,4.04000 ,,,,
-0.64000 ,3.92000 ,,,,
-0.63680 ,3.88000 ,,,,
-0.63360 ,3.80000 ,,,,
-0.63040 ,3.68000 ,,,,
-0.62720 ,3.60000 ,,,,
-0.62400 ,3.56000 ,,,,
-0.62080 ,3.44000 ,,,,
-0.61760 ,3.36000 ,,,,
-0.61440 ,3.28000 ,,,,
-0.61120 ,3.24000 ,,,,
-0.60800 ,3.16000 ,,,,
-0.60480 ,3.12000 ,,,,
-0.60160 ,3.08000 ,,,,
-0.59840 ,3.04000 ,,,,
-0.59520 ,3.00000 ,,,,
-0.59200 ,3.04000 ,,,,
-0.58880 ,2.96000 ,,,,
-0.58560 ,3.00000 ,,,,
-0.58240 ,3.00000 ,,,,
-0.57920 ,2.96000 ,,,,
-0.57600 ,3.00000 ,,,,
-0.57280 ,2.96000 ,,,,
-0.56960 ,2.96000 ,,,,
-0.56640 ,2.96000 ,,,,
-0.56320 ,2.92000 ,,,,
-0.56000 ,2.96000 ,,,,
-0.55680 ,2.88000 ,,,,
-0.55360 ,2.84000 ,,,,
-0.55040 ,2.80000 ,,,,
-0.54720 ,2.76000 ,,,,
-0.54400 ,2.72000 ,,,,
-0.54080 ,2.64000 ,,,,
-0.53760 ,2.56000 ,,,,
-0.53440 ,2.56000 ,,,,
-0.53120 ,2.40000 ,,,,
-0.52800 ,2.32000 ,,,,
-0.52480 ,2.24000 ,,,,
-0.52160 ,2.16000 ,,,,
