BPDatas/KI_20230222_1817_afterRunning.CSV

TIME,CH1,SBP,DBP,Model,TBS1102C
-3.20000 ,-1.52000 ,146,100,Firmware Version,v2015-08-04-prequal4ch70_v1.3
-3.19700 ,-1.36000 ,,,,
-3.19400 ,-1.36000 ,,,Point Format,Y
-3.19000 ,-1.12000 ,,,Horizontal Units,S
-3.18700 ,-1.12000 ,,,Horizontal Scale,0.4
-3.18400 ,-0.80000 ,,,Sample Interval,0.0032
-3.18100 ,-0.72000 ,,,Filter Frequency,2.00E+08
-3.17800 ,-0.56000 ,,,Record Length,2000
-3.17400 ,-0.32000 ,,,Gating,0.0% to 100.0%
-3.17100 ,-0.16000 ,,,Probe Attenuation,10
-3.16800 ,0.08000 ,,,Vertical Units,V
-3.16500 ,0.32000 ,,,Vertical Offset,0
-3.16200 ,0.56000 ,,,Vertical Scale,2
-3.15800 ,0.88000 ,,,Label,
-3.15500 ,0.96000 ,,,,
-3.15200 ,1.20000 ,,,,
-3.14900 ,1.36000 ,,,,
-3.14600 ,1.60000 ,,,,
-3.14200 ,1.68000 ,,,,
-3.13900 ,1.92000 ,,,,
-3.13600 ,2.00000 ,,,,
-3.13300 ,2.08000 ,,,,
-3.13000 ,2.16000 ,,,,
-3.12600 ,2.32000 ,,,,
-3.12300 ,2.40000 ,,,,
-3.12000 ,2.40000 ,,,,
-3.11700 ,2.40000 ,,,,
-3.11400 ,2.48000 ,,,,
-3.11000 ,2.48000 ,,,,
-3.10700 ,2.40000 ,,,,
-3.10400 ,2.48000 ,,,,
-3.10100 ,2.40000 ,,,,
-3.09800 ,2.40000 ,,,,
-3.09400 ,2.40000 ,,,,
-3.09100 ,2.32000 ,,,,
-3.08800 ,2.24000 ,,,,
-3.08500 ,2.16000 ,,,,
-3.08200 ,2.24000 ,,,,
-3.07800 ,2.08000 ,,,,
-3.07500 ,2.08000 ,,,,
-3.07200 ,2.00000 ,,,,
-3.06900 ,1.92000 ,,,,
-3.06600 ,1.92000 ,,,,
-3.06200 ,1.84000 ,,,,
-3.05900 ,1.84000 ,,,,
-3.05600 ,1.68000 ,,,,
-3.05300 ,1.76000 ,,,,
-3.05000 ,1.68000 ,,,,
-3.04600 ,1.60000 ,,,,
-3.04300 ,1.60000 ,,,,
-3.04000 ,1.52000 ,,,,
-3.03700 ,1.44000 ,,,,
-3.03400 ,1.36000 ,,,,
-3.03000 ,1.36000 ,,,,
-3.02700 ,1.36000 ,,,,
-3.02400 ,1.28000 ,,,,
-3.02100 ,1.20000 ,,,,
-3.01800 ,1.20000 ,,,,
-3.01400 ,1.28000 ,,,,
-3.01100 ,1.12000 ,,,,
-3.00800 ,1.20000 ,,,,
-3.00500 ,1.20000 ,,,,
-3.00200 ,1.12000 ,,,,
-2.99800 ,1.12000 ,,,,
-2.99500 ,1.04000 ,,,,
-2.99200 ,1.04000 ,,,,
-2.98900 ,0.96000 ,,,,
-2.98600 ,0.96000 ,,,,
-2.98200 ,0.88000 ,,,,
-2.97900 ,0.80000 ,,,,
-2.97600 ,0.80000 ,,,,
-2.97300 ,0.72000 ,,,,
-2.97000 ,0.72000 ,,,,
-2.96600 ,0.64000 ,,,,
-2.96300 ,0.64000 ,,,,
-2.96000 ,0.64000 ,,,,
-2.95700 ,0.48000 ,,,,
-2.95400 ,0.48000 ,,,,
-2.95000 ,0.40000 ,,,,
-2.94700 ,0.32000 ,,,,
-2.94400 ,0.32000 ,,,,
-2.94100 ,0.24000 ,,,,
-2.93800 ,0.24000 ,,,,
-2.93400 ,0.24000 ,,,,
-2.93100 ,0.08000 ,,,,
-2.92800 ,0.08000 ,,,,
-2.92500 ,0.00000 ,,,,
-2.92200 ,0.00000 ,,,,
-2.91800 ,0.00000 ,,,,
-2.91500 ,0.00000 ,,,,
-2.91200 ,-0.16000 ,,,,
-2.90900 ,-0.08000 ,,,,
-2.90600 ,-0.16000 ,,,,
-2.90200 ,-0.16000 ,,,,
-2.89900 ,-0.24000 ,,,,
-2.89600 ,-0.16000 ,,,,
-2.89300 ,-0.16000 ,,,,
-2.89000 ,-0.16000 ,,,,
-2.88600 ,-0.24000 ,,,,
-2.88300 ,-0.16000 ,,,,
-2.88000 ,-0.16000 ,,,,
-2.87700 ,-0.24000 ,,,,
-2.87400 ,-0.16000 ,,,,
-2.87000 ,-0.16000 ,,,,
-2.86700 ,-0.16000 ,,,,
-2.86400 ,-0.08000 ,,,,
-2.86100 ,-0.16000 ,,,,
-2.85800 ,-0.08000 ,,,,
-2.85400 ,0.00000 ,,,,
-2.85100 ,-0.08000 ,,,,
-2.84800 ,0.00000 ,,,,
-2.84500 ,0.00000 ,,,,
-2.84200 ,-0.08000 ,,,,
-2.83800 ,0.00000 ,,,,
-2.83500 ,0.00000 ,,,,
-2.83200 ,0.00000 ,,,,
-2.82900 ,0.08000 ,,,,
-2.82600 ,0.00000 ,,,,
-2.82200 ,0.00000 ,,,,
-2.81900 ,0.00000 ,,,,
-2.81600 ,0.00000 ,,,,
-2.81300 ,0.00000 ,,,,
-2.81000 ,0.00000 ,,,,
-2.80600 ,0.00000 ,,,,
-2.80300 ,0.00000 ,,,,
-2.80000 ,-0.08000 ,,,,
-2.79700 ,-0.08000 ,,,,
-2.79400 ,-0.16000 ,,,,
-2.79000 ,-0.08000 ,,,,
-2.78700 ,-0.16000 ,,,,
-2.78400 ,-0.16000 ,,,,
-2.78100 ,-0.24000 ,,,,
-2.77800 ,-0.16000 ,,,,
-2.77400 ,-0.24000 ,,,,
-2.77100 ,-0.24000 ,,,,
-2.76800 ,-0.32000 ,,,,
-2.76500 ,-0.32000 ,,,,
-2.76200 ,-0.32000 ,,,,
-2.75800 ,-0.40000 ,,,,
-2.75500 ,-0.40000 ,,,,
-2.75200 ,-0.40000 ,,,,
-2.74900 ,-0.48000 ,,,,
-2.74600 ,-0.48000 ,,,,
-2.74200 ,-0.56000 ,,,,
-2.73900 ,-0.56000 ,,,,
-2.73600 ,-0.56000 ,,,,
-2.73300 ,-0.64000 ,,,,
-2.73000 ,-0.64000 ,,,,
-2.72600 ,-0.64000 ,,,,
-2.72300 ,-0.72000 ,,,,
-2.72000 ,-0.72000 ,,,,
-2.71700 ,-0.72000 ,,,,
-2.71400 ,-0.80000 ,,,,
-2.71000 ,-0.80000 ,,,,
-2.70700 ,-0.80000 ,,,,
-2.70400 ,-0.80000 ,,,,
-2.70100 ,-0.88000 ,,,,
-2.69800 ,-0.88000 ,,,,
-2.69400 ,-0.88000 ,,,,
-2.69100 ,-0.96000 ,,,,
-2.68800 ,-0.88000 ,,,,
-2.68500 ,-0.96000 ,,,,
-2.68200 ,-0.96000 ,,,,
-2.67800 ,-0.88000 ,,,,
-2.67500 ,-0.96000 ,,,,
-2.67200 ,-0.96000 ,,,,
-2.66900 ,-0.96000 ,,,,
-2.66600 ,-1.04000 ,,,,
-2.66200 ,-0.96000 ,,,,
-2.65900 ,-1.04000 ,,,,
-2.65600 ,-1.04000 ,,,,
-2.65300 ,-1.04000 ,,,,
-2.65000 ,-1.12000 ,,,,
-2.64600 ,-1.12000 ,,,,
-2.64300 ,-1.04000 ,,,,
-2.64000 ,-1.04000 ,,,,
-2.63700 ,-1.12000 ,,,,
-2.63400 ,-1.12000 ,,,,
-2.63000 ,-1.12000 ,,,,
-2.62700 ,-1.12000 ,,,,
-2.62400 ,-1.12000 ,,,,
-2.62100 ,-1.12000 ,,,,
-2.61800 ,-1.20000 ,,,,
-2.61400 ,-1.20000 ,,,,
-2.61100 ,-1.20000 ,,,,
-2.60800 ,-1.12000 ,,,,
-2.60500 ,-1.20000 ,,,,
-2.60200 ,-1.20000 ,,,,
-2.59800 ,-1.20000 ,,,,
-2.59500 ,-1.20000 ,,,,
-2.59200 ,-1.20000 ,,,,
-2.58900 ,-1.28000 ,,,,
-2.58600 ,-1.28000 ,,,,
-2.58200 ,-1.28000 ,,,,
-2.57900 ,-1.36000 ,,,,
-2.57600 ,-1.28000 ,,,,
-2.57300 ,-1.28000 ,,,,
-2.57000 ,-1.36000 ,,,,
-2.56600 ,-1.28000 ,,,,
-2.56300 ,-1.28000 ,,,,
-2.56000 ,-1.44000 ,,,,
-2.55700 ,-1.44000 ,,,,
-2.55400 ,-1.36000 ,,,,
-2.55000 ,-1.44000 ,,,,
-2.54700 ,-1.44000 ,,,,
-2.54400 ,-1.44000 ,,,,
-2.54100 ,-1.44000 ,,,,
-2.53800 ,-1.44000 ,,,,
-2.53400 ,-1.52000 ,,,,
-2.53100 ,-1.52000 ,,,,
-2.52800 ,-1.52000 ,,,,
-2.52500 ,-1.52000 ,,,,
-2.52200 ,-1.52000 ,,,,
-2.51800 ,-1.52000 ,,,,
-2.51500 ,-1.68000 ,,,,
-2.51200 ,-1.60000 ,,,,
-2.50900 ,-1.68000 ,,,,
-2.50600 ,-1.68000 ,,,,
-2.50200 ,-1.76000 ,,,,
-2.49900 ,-1.68000 ,,,,
-2.49600 ,-1.68000 ,,,,
-2.49300 ,-1.68000 ,,,,
-2.49000 ,-1.68000 ,,,,
-2.48600 ,-1.68000 ,,,,
-2.48300 ,-1.60000 ,,,,
-2.48000 ,-1.52000 ,,,,
-2.47700 ,-1.36000 ,,,,
-2.47400 ,-1.28000 ,,,,
-2.47000 ,-1.12000 ,,,,
-2.46700 ,-0.96000 ,,,,
-2.46400 ,-0.80000 ,,,,
-2.46100 ,-0.56000 ,,,,
-2.45800 ,-0.40000 ,,,,
-2.45400 ,-0.16000 ,,,,
-2.45100 ,0.08000 ,,,,
-2.44800 ,0.40000 ,,,,
-2.44500 ,0.56000 ,,,,
-2.44200 ,0.80000 ,,,,
-2.43800 ,1.04000 ,,,,
-2.43500 ,1.20000 ,,,,
-2.43200 ,1.44000 ,,,,
-2.42900 ,1.60000 ,,,,
-2.42600 ,1.76000 ,,,,
-2.42200 ,1.92000 ,,,,
-2.41900 ,2.08000 ,,,,
-2.41600 ,2.16000 ,,,,
-2.41300 ,2.24000 ,,,,
-2.41000 ,2.40000 ,,,,
-2.40600 ,2.40000 ,,,,
-2.40300 ,2.48000 ,,,,
-2.40000 ,2.56000 ,,,,
-2.39700 ,2.56000 ,,,,
-2.39400 ,2.48000 ,,,,
-2.39000 ,2.56000 ,,,,
-2.38700 ,2.48000 ,,,,
-2.38400 ,2.48000 ,,,,
-2.38100 ,2.40000 ,,,,
-2.37800 ,2.40000 ,,,,
-2.37400 ,2.24000 ,,,,
-2.37100 ,2.24000 ,,,,
-2.36800 ,2.16000 ,,,,
-2.36500 ,2.08000 ,,,,
-2.36200 ,2.08000 ,,,,
-2.35800 ,2.00000 ,,,,
-2.35500 ,1.92000 ,,,,
-2.35200 ,1.84000 ,,,,
-2.34900 ,1.76000 ,,,,
-2.34600 ,1.68000 ,,,,
-2.34200 ,1.68000 ,,,,
-2.33900 ,1.60000 ,,,,
-2.33600 ,1.52000 ,,,,
-2.33300 ,1.44000 ,,,,
-2.33000 ,1.36000 ,,,,
-2.32600 ,1.36000 ,,,,
-2.32300 ,1.20000 ,,,,
-2.32000 ,1.20000 ,,,,
-2.31700 ,1.20000 ,,,,
-2.31400 ,1.12000 ,,,,
-2.31000 ,1.12000 ,,,,
-2.30700 ,1.04000 ,,,,
-2.30400 ,0.96000 ,,,,
-2.30100 ,0.96000 ,,,,
-2.29800 ,0.96000 ,,,,
-2.29400 ,0.88000 ,,,,
-2.29100 ,0.88000 ,,,,
-2.28800 ,0.88000 ,,,,
-2.28500 ,0.72000 ,,,,
-2.28200 ,0.80000 ,,,,
-2.27800 ,0.72000 ,,,,
-2.27500 ,0.72000 ,,,,
-2.27200 ,0.64000 ,,,,
-2.26900 ,0.64000 ,,,,
-2.26600 ,0.56000 ,,,,
-2.26200 ,0.56000 ,,,,
-2.25900 ,0.48000 ,,,,
-2.25600 ,0.56000 ,,,,
-2.25300 ,0.48000 ,,,,
-2.25000 ,0.40000 ,,,,
-2.24600 ,0.32000 ,,,,
-2.24300 ,0.32000 ,,,,
-2.24000 ,0.24000 ,,,,
-2.23700 ,0.24000 ,,,,
-2.23400 ,0.16000 ,,,,
-2.23000 ,0.08000 ,,,,
-2.22700 ,0.00000 ,,,,
-2.22400 ,0.00000 ,,,,
-2.22100 ,0.00000 ,,,,
-2.21800 ,-0.16000 ,,,,
-2.21400 ,-0.08000 ,,,,
-2.21100 ,-0.16000 ,,,,
-2.20800 ,-0.24000 ,,,,
-2.20500 ,-0.24000 ,,,,
-2.20200 ,-0.24000 ,,,,
-2.19800 ,-0.24000 ,,,,
-2.19500 ,-0.32000 ,,,,
-2.19200 ,-0.32000 ,,,,
-2.18900 ,-0.40000 ,,,,
-2.18600 ,-0.32000 ,,,,
-2.18200 ,-0.32000 ,,,,
-2.17900 ,-0.32000 ,,,,
-2.17600 ,-0.32000 ,,,,
-2.17300 ,-0.32000 ,,,,
-2.17000 ,-0.40000 ,,,,
-2.16600 ,-0.32000 ,,,,
-2.16300 ,-0.24000 ,,,,
-2.16000 ,-0.32000 ,,,,
-2.15700 ,-0.24000 ,,,,
-2.15400 ,-0.32000 ,,,,
-2.15000 ,-0.24000 ,,,,
-2.14700 ,-0.24000 ,,,,
-2.14400 ,-0.16000 ,,,,
-2.14100 ,-0.16000 ,,,,
-2.13800 ,-0.16000 ,,,,
-2.13400 ,-0.16000 ,,,,
-2.13100 ,-0.16000 ,,,,
-2.12800 ,-0.24000 ,,,,
-2.12500 ,-0.16000 ,,,,
-2.12200 ,-0.16000 ,,,,
-2.11800 ,-0.08000 ,,,,
-2.11500 ,-0.08000 ,,,,
-2.11200 ,-0.08000 ,,,,
-2.10900 ,-0.08000 ,,,,
-2.10600 ,-0.08000 ,,,,
-2.10200 ,-0.08000 ,,,,
-2.09900 ,-0.08000 ,,,,
-2.09600 ,-0.16000 ,,,,
-2.09300 ,-0.16000 ,,,,
-2.09000 ,-0.24000 ,,,,
-2.08600 ,-0.24000 ,,,,
-2.08300 ,-0.16000 ,,,,
-2.08000 ,-0.16000 ,,,,
-2.07700 ,-0.24000 ,,,,
-2.07400 ,-0.24000 ,,,,
-2.07000 ,-0.32000 ,,,,
-2.06700 ,-0.32000 ,,,,
-2.06400 ,-0.32000 ,,,,
-2.06100 ,-0.40000 ,,,,
-2.05800 ,-0.40000 ,,,,
-2.05400 ,-0.40000 ,,,,
-2.05100 ,-0.40000 ,,,,
-2.04800 ,-0.48000 ,,,,
-2.04500 ,-0.48000 ,,,,
-2.04200 ,-0.48000 ,,,,
-2.03800 ,-0.56000 ,,,,
-2.03500 ,-0.56000 ,,,,
-2.03200 ,-0.64000 ,,,,
-2.02900 ,-0.64000 ,,,,
-2.02600 ,-0.72000 ,,,,
-2.02200 ,-0.72000 ,,,,
-2.01900 ,-0.72000 ,,,,
-2.01600 ,-0.72000 ,,,,
-2.01300 ,-0.80000 ,,,,
-2.01000 ,-0.80000 ,,,,
-2.00600 ,-0.88000 ,,,,
-2.00300 ,-0.88000 ,,,,
-2.00000 ,-0.88000 ,,,,
-1.99700 ,-0.88000 ,,,,
-1.99400 ,-0.96000 ,,,,
-1.99000 ,-0.88000 ,,,,
-1.98700 ,-0.96000 ,,,,
-1.98400 ,-1.04000 ,,,,
-1.98100 ,-0.96000 ,,,,
-1.97800 ,-1.12000 ,,,,
-1.97400 ,-1.04000 ,,,,
-1.97100 ,-1.04000 ,,,,
-1.96800 ,-1.12000 ,,,,
-1.96500 ,-1.12000 ,,,,
-1.96200 ,-1.20000 ,,,,
-1.95800 ,-1.12000 ,,,,
-1.95500 ,-1.20000 ,,,,
-1.95200 ,-1.12000 ,,,,
-1.94900 ,-1.20000 ,,,,
-1.94600 ,-1.20000 ,,,,
-1.94200 ,-1.20000 ,,,,
-1.93900 ,-1.28000 ,,,,
-1.93600 ,-1.20000 ,,,,
-1.93300 ,-1.28000 ,,,,
-1.93000 ,-1.36000 ,,,,
-1.92600 ,-1.36000 ,,,,
-1.92300 ,-1.28000 ,,,,
-1.92000 ,-1.36000 ,,,,
-1.91700 ,-1.36000 ,,,,
-1.91400 ,-1.36000 ,,,,
-1.91000 ,-1.36000 ,,,,
-1.90700 ,-1.44000 ,,,,
-1.90400 ,-1.36000 ,,,,
-1.90100 ,-1.44000 ,,,,
-1.89800 ,-1.44000 ,,,,
-1.89400 ,-1.52000 ,,,,
-1.89100 ,-1.44000 ,,,,
-1.88800 ,-1.44000 ,,,,
-1.88500 ,-1.44000 ,,,,
-1.88200 ,-1.52000 ,,,,
-1.87800 ,-1.52000 ,,,,
-1.87500 ,-1.52000 ,,,,
-1.87200 ,-1.52000 ,,,,
-1.86900 ,-1.52000 ,,,,
-1.86600 ,-1.52000 ,,,,
-1.86200 ,-1.60000 ,,,,
-1.85900 ,-1.60000 ,,,,
-1.85600 ,-1.60000 ,,,,
-1.85300 ,-1.60000 ,,,,
-1.85000 ,-1.60000 ,,,,
-1.84600 ,-1.60000 ,,,,
-1.84300 ,-1.68000 ,,,,
-1.84000 ,-1.68000 ,,,,
-1.83700 ,-1.68000 ,,,,
-1.83400 ,-1.68000 ,,,,
-1.83000 ,-1.76000 ,,,,
-1.82700 ,-1.76000 ,,,,
-1.82400 ,-1.76000 ,,,,
-1.82100 ,-1.76000 ,,,,
-1.81800 ,-1.84000 ,,,,
-1.81400 ,-1.76000 ,,,,
-1.81100 ,-1.76000 ,,,,
-1.80800 ,-1.92000 ,,,,
-1.80500 ,-1.84000 ,,,,
-1.80200 ,-1.92000 ,,,,
-1.79800 ,-1.92000 ,,,,
-1.79500 ,-1.92000 ,,,,
-1.79200 ,-1.92000 ,,,,
-1.78900 ,-1.92000 ,,,,
-1.78600 ,-1.92000 ,,,,
-1.78200 ,-2.00000 ,,,,
-1.77900 ,-2.08000 ,,,,
-1.77600 ,-2.00000 ,,,,
-1.77300 ,-2.00000 ,,,,
-1.77000 ,-2.00000 ,,,,
-1.76600 ,-2.00000 ,,,,
-1.76300 ,-2.00000 ,,,,
-1.76000 ,-1.92000 ,,,,
-1.75700 ,-1.92000 ,,,,
-1.75400 ,-1.84000 ,,,,
-1.75000 ,-1.68000 ,,,,
-1.74700 ,-1.60000 ,,,,
-1.74400 ,-1.44000 ,,,,
-1.74100 ,-1.20000 ,,,,
-1.73800 ,-1.04000 ,,,,
-1.73400 ,-0.88000 ,,,,
-1.73100 ,-0.72000 ,,,,
-1.72800 ,-0.40000 ,,,,
-1.72500 ,-0.16000 ,,,,
-1.72200 ,0.00000 ,,,,
-1.71800 ,0.24000 ,,,,
-1.71500 ,0.56000 ,,,,
-1.71200 ,0.72000 ,,,,
-1.70900 ,0.88000 ,,,,
-1.70600 ,1.12000 ,,,,
-1.70200 ,1.28000 ,,,,
-1.69900 ,1.44000 ,,,,
-1.69600 ,1.60000 ,,,,
-1.69300 ,1.76000 ,,,,
-1.69000 ,1.84000 ,,,,
-1.68600 ,2.00000 ,,,,
-1.68300 ,2.00000 ,,,,
-1.68000 ,2.08000 ,,,,
-1.67700 ,2.16000 ,,,,
-1.67400 ,2.24000 ,,,,
-1.67000 ,2.24000 ,,,,
-1.66700 ,2.24000 ,,,,
-1.66400 ,2.24000 ,,,,
-1.66100 ,2.24000 ,,,,
-1.65800 ,2.24000 ,,,,
-1.65400 ,2.16000 ,,,,
-1.65100 ,2.08000 ,,,,
-1.64800 ,2.16000 ,,,,
-1.64500 ,2.08000 ,,,,
-1.64200 ,2.08000 ,,,,
-1.63800 ,1.92000 ,,,,
-1.63500 ,1.84000 ,,,,
-1.63200 ,1.84000 ,,,,
-1.62900 ,1.76000 ,,,,
-1.62600 ,1.68000 ,,,,
-1.62200 ,1.68000 ,,,,
-1.61900 ,1.60000 ,,,,
-1.61600 ,1.44000 ,,,,
-1.61300 ,1.44000 ,,,,
-1.61000 ,1.36000 ,,,,
-1.60600 ,1.28000 ,,,,
-1.60300 ,1.20000 ,,,,
-1.60000 ,1.28000 ,,,,
-1.59700 ,1.12000 ,,,,
-1.59400 ,1.04000 ,,,,
-1.59000 ,1.04000 ,,,,
-1.58700 ,1.04000 ,,,,
-1.58400 ,0.96000 ,,,,
-1.58100 ,0.88000 ,,,,
-1.57800 ,0.80000 ,,,,
-1.57400 ,0.88000 ,,,,
-1.57100 ,0.88000 ,,,,
-1.56800 ,0.72000 ,,,,
-1.56500 ,0.72000 ,,,,
-1.56200 ,0.72000 ,,,,
-1.55800 ,0.72000 ,,,,
-1.55500 ,0.72000 ,,,,
-1.55200 ,0.64000 ,,,,
-1.54900 ,0.64000 ,,,,
-1.54600 ,0.64000 ,,,,
-1.54200 ,0.64000 ,,,,
-1.53900 ,0.56000 ,,,,
-1.53600 ,0.56000 ,,,,
-1.53300 ,0.56000 ,,,,
-1.53000 ,0.48000 ,,,,
-1.52600 ,0.56000 ,,,,
-1.52300 ,0.40000 ,,,,
-1.52000 ,0.32000 ,,,,
-1.51700 ,0.32000 ,,,,
-1.51400 ,0.32000 ,,,,
-1.51000 ,0.32000 ,,,,
-1.50700 ,0.24000 ,,,,
-1.50400 ,0.24000 ,,,,
-1.50100 ,0.16000 ,,,,
-1.49800 ,0.08000 ,,,,
-1.49400 ,0.08000 ,,,,
-1.49100 ,0.00000 ,,,,
-1.48800 ,0.08000 ,,,,
-1.48500 ,0.00000 ,,,,
-1.48200 ,0.00000 ,,,,
-1.47800 ,0.00000 ,,,,
-1.47500 ,0.00000 ,,,,
-1.47200 ,0.00000 ,,,,
-1.46900 ,-0.08000 ,,,,
-1.46600 ,-0.08000 ,,,,
-1.46200 ,-0.16000 ,,,,
-1.45900 ,-0.16000 ,,,,
-1.45600 ,-0.08000 ,,,,
-1.45300 ,-0.16000 ,,,,
-1.45000 ,-0.08000 ,,,,
-1.44600 ,-0.16000 ,,,,
-1.44300 ,-0.08000 ,,,,
-1.44000 ,-0.08000 ,,,,
-1.43700 ,-0.08000 ,,,,
-1.43400 ,0.00000 ,,,,
-1.43000 ,0.00000 ,,,,
-1.42700 ,0.00000 ,,,,
-1.42400 ,0.08000 ,,,,
-1.42100 ,0.00000 ,,,,
-1.41800 ,0.00000 ,,,,
-1.41400 ,0.08000 ,,,,
-1.41100 ,0.08000 ,,,,
-1.40800 ,0.08000 ,,,,
-1.40500 ,0.08000 ,,,,
-1.40200 ,0.08000 ,,,,
-1.39800 ,0.16000 ,,,,
-1.39500 ,0.16000 ,,,,
-1.39200 ,0.16000 ,,,,
-1.38900 ,0.16000 ,,,,
-1.38600 ,0.08000 ,,,,
-1.38200 ,0.16000 ,,,,
-1.37900 ,0.16000 ,,,,
-1.37600 ,0.16000 ,,,,
-1.37300 ,0.08000 ,,,,
-1.37000 ,0.16000 ,,,,
-1.36600 ,0.16000 ,,,,
-1.36300 ,0.08000 ,,,,
-1.36000 ,0.08000 ,,,,
-1.35700 ,0.08000 ,,,,
-1.35400 ,0.08000 ,,,,
-1.35000 ,0.00000 ,,,,
-1.34700 ,0.00000 ,,,,
-1.34400 ,0.00000 ,,,,
-1.34100 ,0.00000 ,,,,
-1.33800 ,-0.08000 ,,,,
-1.33400 ,-0.08000 ,,,,
-1.33100 ,-0.08000 ,,,,
-1.32800 ,-0.08000 ,,,,
-1.32500 ,-0.16000 ,,,,
-1.32200 ,-0.16000 ,,,,
-1.31800 ,-0.16000 ,,,,
-1.31500 ,-0.32000 ,,,,
-1.31200 ,-0.32000 ,,,,
-1.30900 ,-0.32000 ,,,,
-1.30600 ,-0.32000 ,,,,
-1.30200 ,-0.32000 ,,,,
-1.29900 ,-0.40000 ,,,,
-1.29600 ,-0.40000 ,,,,
-1.29300 ,-0.48000 ,,,,
-1.29000 ,-0.40000 ,,,,
-1.28600 ,-0.56000 ,,,,
-1.28300 ,-0.48000 ,,,,
-1.28000 ,-0.64000 ,,,,
-1.27700 ,-0.56000 ,,,,
-1.27400 ,-0.64000 ,,,,
-1.27000 ,-0.64000 ,,,,
-1.26700 ,-0.64000 ,,,,
-1.26400 ,-0.64000 ,,,,
-1.26100 ,-0.64000 ,,,,
-1.25800 ,-0.72000 ,,,,
-1.25400 ,-0.64000 ,,,,
-1.25100 ,-0.64000 ,,,,
-1.24800 ,-0.72000 ,,,,
-1.24500 ,-0.72000 ,,,,
-1.24200 ,-0.72000 ,,,,
-1.23800 ,-0.72000 ,,,,
-1.23500 ,-0.72000 ,,,,
-1.23200 ,-0.72000 ,,,,
-1.22900 ,-0.80000 ,,,,
-1.22600 ,-0.72000 ,,,,
-1.22200 ,-0.72000 ,,,,
-1.21900 ,-0.80000 ,,,,
-1.21600 ,-0.80000 ,,,,
-1.21300 ,-0.80000 ,,,,
-1.21000 ,-0.80000 ,,,,
-1.20600 ,-0.80000 ,,,,
-1.20300 ,-0.88000 ,,,,
-1.20000 ,-0.88000 ,,,,
-1.19700 ,-0.88000 ,,,,
-1.19400 ,-0.88000 ,,,,
-1.19000 ,-0.88000 ,,,,
-1.18700 ,-0.88000 ,,,,
-1.18400 ,-0.96000 ,,,,
-1.18100 ,-0.96000 ,,,,
-1.17800 ,-0.96000 ,,,,
-1.17400 ,-0.96000 ,,,,
-1.17100 ,-0.96000 ,,,,
-1.16800 ,-0.96000 ,,,,
-1.16500 ,-0.96000 ,,,,
-1.16200 ,-0.96000 ,,,,
-1.15800 ,-1.04000 ,,,,
-1.15500 ,-1.04000 ,,,,
-1.15200 ,-1.04000 ,,,,
-1.14900 ,-1.12000 ,,,,
-1.14600 ,-1.04000 ,,,,
-1.14200 ,-1.04000 ,,,,
-1.13900 ,-1.12000 ,,,,
-1.13600 ,-1.04000 ,,,,
-1.13300 ,-1.12000 ,,,,
-1.13000 ,-1.20000 ,,,,
-1.12600 ,-1.12000 ,,,,
-1.12300 ,-1.12000 ,,,,
-1.12000 ,-1.20000 ,,,,
-1.11700 ,-1.20000 ,,,,
-1.11400 ,-1.20000 ,,,,
-1.11000 ,-1.20000 ,,,,
-1.10700 ,-1.20000 ,,,,
-1.10400 ,-1.20000 ,,,,
-1.10100 ,-1.20000 ,,,,
-1.09800 ,-1.36000 ,,,,
-1.09400 ,-1.28000 ,,,,
-1.09100 ,-1.36000 ,,,,
-1.08800 ,-1.44000 ,,,,
-1.08500 ,-1.44000 ,,,,
-1.08200 ,-1.44000 ,,,,
-1.07800 ,-1.52000 ,,,,
-1.07500 ,-1.52000 ,,,,
-1.07200 ,-1.52000 ,,,,
-1.06900 ,-1.60000 ,,,,
-1.06600 ,-1.52000 ,,,,
-1.06200 ,-1.52000 ,,,,
-1.05900 ,-1.68000 ,,,,
-1.05600 ,-1.60000 ,,,,
-1.05300 ,-1.68000 ,,,,
-1.05000 ,-1.68000 ,,,,
-1.04600 ,-1.60000 ,,,,
-1.04300 ,-1.60000 ,,,,
-1.04000 ,-1.60000 ,,,,
-1.03700 ,-1.52000 ,,,,
-1.03400 ,-1.36000 ,,,,
-1.03000 ,-1.36000 ,,,,
-1.02700 ,-1.12000 ,,,,
-1.02400 ,-1.04000 ,,,,
-1.02100 ,-0.80000 ,,,,
-1.01800 ,-0.64000 ,,,,
-1.01400 ,-0.40000 ,,,,
-1.01100 ,-0.16000 ,,,,
-1.00800 ,0.08000 ,,,,
-1.00500 ,0.24000 ,,,,
-1.00200 ,0.48000 ,,,,
-0.99840 ,0.72000 ,,,,
-0.99520 ,0.96000 ,,,,
-0.99200 ,1.12000 ,,,,
-0.98880 ,1.36000 ,,,,
-0.98560 ,1.60000 ,,,,
-0.98240 ,1.68000 ,,,,
-0.97920 ,1.84000 ,,,,
-0.97600 ,2.00000 ,,,,
-0.97280 ,2.16000 ,,,,
-0.96960 ,2.24000 ,,,,
-0.96640 ,2.32000 ,,,,
-0.96320 ,2.40000 ,,,,
-0.96000 ,2.40000 ,,,,
-0.95680 ,2.48000 ,,,,
-0.95360 ,2.48000 ,,,,
-0.95040 ,2.56000 ,,,,
-0.94720 ,2.56000 ,,,,
-0.94400 ,2.48000 ,,,,
-0.94080 ,2.56000 ,,,,
-0.93760 ,2.56000 ,,,,
-0.93440 ,2.48000 ,,,,
-0.93120 ,2.48000 ,,,,
-0.92800 ,2.40000 ,,,,
-0.92480 ,2.32000 ,,,,
-0.92160 ,2.24000 ,,,,
-0.91840 ,2.24000 ,,,,
-0.91520 ,2.16000 ,,,,
-0.91200 ,2.16000 ,,,,
-0.90880 ,2.08000 ,,,,
-0.90560 ,2.00000 ,,,,
-0.90240 ,1.92000 ,,,,
-0.89920 ,1.92000 ,,,,
-0.89600 ,1.84000 ,,,,
-0.89280 ,1.76000 ,,,,
-0.88960 ,1.76000 ,,,,
-0.88640 ,1.68000 ,,,,
-0.88320 ,1.60000 ,,,,
-0.88000 ,1.60000 ,,,,
-0.87680 ,1.52000 ,,,,
-0.87360 ,1.52000 ,,,,
-0.87040 ,1.44000 ,,,,
-0.86720 ,1.44000 ,,,,
-0.86400 ,1.36000 ,,,,
-0.86080 ,1.36000 ,,,,
-0.85760 ,1.28000 ,,,,
-0.85440 ,1.28000 ,,,,
-0.85120 ,1.28000 ,,,,
-0.84800 ,1.20000 ,,,,
-0.84480 ,1.28000 ,,,,
-0.84160 ,1.20000 ,,,,
-0.83840 ,1.20000 ,,,,
-0.83520 ,1.12000 ,,,,
-0.83200 ,1.12000 ,,,,
-0.82880 ,1.12000 ,,,,
-0.82560 ,1.04000 ,,,,
-0.82240 ,1.04000 ,,,,
-0.81920 ,1.04000 ,,,,
-0.81600 ,1.12000 ,,,,
-0.81280 ,0.96000 ,,,,
-0.80960 ,1.04000 ,,,,
-0.80640 ,0.96000 ,,,,
-0.80320 ,0.96000 ,,,,
-0.80000 ,0.80000 ,,,,
-0.79680 ,0.80000 ,,,,
-0.79360 ,0.72000 ,,,,
-0.79040 ,0.72000 ,,,,
-0.78720 ,0.64000 ,,,,
-0.78400 ,0.64000 ,,,,
-0.78080 ,0.64000 ,,,,
-0.77760 ,0.56000 ,,,,
-0.77440 ,0.48000 ,,,,
-0.77120 ,0.48000 ,,,,
-0.76800 ,0.32000 ,,,,
-0.76480 ,0.40000 ,,,,
-0.76160 ,0.32000 ,,,,
-0.75840 ,0.32000 ,,,,
-0.75520 ,0.24000 ,,,,
-0.75200 ,0.24000 ,,,,
-0.74880 ,0.24000 ,,,,
-0.74560 ,0.08000 ,,,,
-0.74240 ,0.16000 ,,,,
-0.73920 ,0.16000 ,,,,
-0.73600 ,0.08000 ,,,,
-0.73280 ,0.08000 ,,,,
-0.72960 ,0.16000 ,,,,
-0.72640 ,0.08000 ,,,,
-0.72320 ,0.08000 ,,,,
-0.72000 ,0.16000 ,,,,
-0.71680 ,0.16000 ,,,,
-0.71360 ,0.08000 ,,,,
-0.71040 ,0.08000 ,,,,
-0.70720 ,0.08000 ,,,,
-0.70400 ,0.16000 ,,,,
-0.70080 ,0.16000 ,,,,
-0.69760 ,0.16000 ,,,,
-0.69440 ,0.16000 ,,,,
-0.69120 ,0.16000 ,,,,
-0.68800 ,0.16000 ,,,,
-0.68480 ,0.24000 ,,,,
-0.68160 ,0.24000 ,,,,
-0.67840 ,0.24000 ,,,,
-0.67520 ,0.16000 ,,,,
-0.67200 ,0.24000 ,,,,
-0.66880 ,0.16000 ,,,,
-0.66560 ,0.16000 ,,,,
-0.66240 ,0.16000 ,,,,
-0.65920 ,0.24000 ,,,,
-0.65600 ,0.24000 ,,,,
-0.65280 ,0.24000 ,,,,
-0.64960 ,0.16000 ,,,,
-0.64640 ,0.16000 ,,,,
-0.64320 ,0.16000 ,,,,
-0.64000 ,0.16000 ,,,,
-0.63680 ,0.16000 ,,,,
-0.63360 ,0.16000 ,,,,
-0.63040 ,0.08000 ,,,,
-0.62720 ,0.00000 ,,,,
-0.62400 ,0.00000 ,,,,
-0.62080 ,0.00000 ,,,,
-0.61760 ,0.00000 ,,,,
-0.61440 ,0.00000 ,,,,
-0.61120 ,-0.08000 ,,,,
-0.60800 ,-0.08000 ,,,,
-0.60480 ,-0.16000 ,,,,
-0.60160 ,-0.16000 ,,,,
-0.59840 ,-0.16000 ,,,,
-0.59520 ,-0.16000 ,,,,
-0.59200 ,-0.24000 ,,,,
-0.58880 ,-0.24000 ,,,,
-0.58560 ,-0.24000 ,,,,
-0.58240 ,-0.32000 ,,,,
-0.57920 ,-0.32000 ,,,,
-0.57600 ,-0.32000 ,,,,
-0.57280 ,-0.48000 ,,,,
-0.56960 ,-0.40000 ,,,,
-0.56640 ,-0.48000 ,,,,
-0.56320 ,-0.48000 ,,,,
-0.56000 ,-0.48000 ,,,,
-0.55680 ,-0.56000 ,,,,
-0.55360 ,-0.48000 ,,,,
-0.55040 ,-0.56000 ,,,,
-0.54720 ,-0.56000 ,,,,
-0.54400 ,-0.64000 ,,,,
-0.54080 ,-0.64000 ,,,,
-0.53760 ,-0.64000 ,,,,
-0.53440 ,-0.64000 ,,,,
-0.53120 ,-0.72000 ,,,,
-0.52800 ,-0.80000 ,,,,
-0.52480 ,-0.72000 ,,,,
-0.52160 ,-0.80000 ,,,,
